{
  "results": [
    {
      "vote_count": 2291,
      "id": 284053,
      "video": false,
      "vote_average": 7.5,
      "title": "Thor: Ragnarok",
      "popularity": 600.109413,
      "poster_path": "/oSLd5GYGsiGgzDPKTwQh7wamO8t.jpg",
      "original_language": "en",
      "original_title": "Thor: Ragnarok",
      "genre_ids": [28, 12, 35, 14, 878],
      "backdrop_path": "/5wNUJs23rT5rTBacNyf5h83AynM.jpg",
      "adult": false,
      "overview":
        "Thor is imprisoned on the other side of the universe and finds himself in a race against time to get back to Asgard to stop Ragnarok, the prophecy of destruction to his homeworld and the end of Asgardian civilization, at the hands of an all-powerful new threat, the ruthless Hela.",
      "release_date": "2017-10-25"
    },
    {
      "vote_count": 1425,
      "id": 141052,
      "video": false,
      "vote_average": 6.7,
      "title": "Justice League",
      "popularity": 501.943388,
      "poster_path": "/9rtrRGeRnL0JKtu9IMBWsmlmmZz.jpg",
      "original_language": "en",
      "original_title": "Justice League",
      "genre_ids": [28, 12, 14, 878],
      "backdrop_path": "/o5T8rZxoWSBMYwjsUFUqTt6uMQB.jpg",
      "adult": false,
      "overview":
        "Fueled by his restored faith in humanity and inspired by Superman's selfless act, Bruce Wayne and Diana Prince assemble a team of metahumans consisting of Barry Allen, Arthur Curry, and Victor Stone to face the catastrophic threat of Steppenwolf and the Parademons who are on the hunt for three Mother Boxes on Earth.",
      "release_date": "2017-11-15"
    },
    {
      "vote_count": 249,
      "id": 419680,
      "video": false,
      "vote_average": 5.7,
      "title": "Daddy's Home 2",
      "popularity": 336.646681,
      "poster_path": "/rF2IoKL0IFmumEXQFUuB8LajTYP.jpg",
      "original_language": "en",
      "original_title": "Daddy's Home 2",
      "genre_ids": [18, 35],
      "backdrop_path": "/lMDyuHzBhx3zNAv48vYzmgcJCCD.jpg",
      "adult": false,
      "overview":
        "Brad and Dusty must deal with their intrusive fathers during the holidays.",
      "release_date": "2017-11-09"
    },
    {
      "vote_count": 617,
      "id": 440021,
      "video": false,
      "vote_average": 6.4,
      "title": "Happy Death Day",
      "popularity": 310.065249,
      "poster_path": "/cTaEIUYTt52ooq9quVbAQ7NpGwo.jpg",
      "original_language": "en",
      "original_title": "Happy Death Day",
      "genre_ids": [27],
      "backdrop_path": "/eGx5OfOdvM0gkHdmkLe3hcJuEIT.jpg",
      "adult": false,
      "overview":
        "A college student relives the day of her murder over and over again as she tries to discover her killer's identity.",
      "release_date": "2017-10-12"
    },
    {
      "vote_count": 354,
      "id": 298250,
      "video": false,
      "vote_average": 5.8,
      "title": "Jigsaw",
      "popularity": 281.07604,
      "poster_path": "/zUbUtxiTdEgWnkXY945gtYYqBZ1.jpg",
      "original_language": "en",
      "original_title": "Jigsaw",
      "genre_ids": [27, 53],
      "backdrop_path": "/ytKpFaLMpFWnuSXStz1GHrtTt6R.jpg",
      "adult": false,
      "overview":
        "Dead bodies begin to turn up all over the city, each meeting their demise in a variety of grisly ways. All investigations begin to point the finger at deceased killer John Kramer.",
      "release_date": "2017-10-20"
    },
    {
      "vote_count": 412,
      "id": 392044,
      "video": false,
      "vote_average": 6.7,
      "title": "Murder on the Orient Express",
      "popularity": 279.279012,
      "poster_path": "/iBlfxlw8qwtUS0R8YjIU7JtM6LM.jpg",
      "original_language": "en",
      "original_title": "Murder on the Orient Express",
      "genre_ids": [80, 18, 9648],
      "backdrop_path": "/tvKcA4OFUiZkNeTJmmTkNqKHMMg.jpg",
      "adult": false,
      "overview":
        "Genius Belgian detective Hercule Poirot investigates the murder of an American tycoon aboard the Orient Express train.",
      "release_date": "2017-11-03"
    },
    {
      "vote_count": 88,
      "id": 399057,
      "video": false,
      "vote_average": 5.9,
      "title": "The Killing of a Sacred Deer",
      "popularity": 217.493707,
      "poster_path": "/e4DGlsc9g0h5AyoyvvAuIRnofN7.jpg",
      "original_language": "en",
      "original_title": "The Killing of a Sacred Deer",
      "genre_ids": [18, 27, 53],
      "backdrop_path": "/854uDv6rzbwF82jOtFe931SMrRs.jpg",
      "adult": false,
      "overview":
        "A teenager's attempts to bring a brilliant surgeon into his dysfunctional family take an unexpected turn.",
      "release_date": "2017-10-20"
    },
    {
      "vote_count": 280,
      "id": 354912,
      "video": false,
      "vote_average": 7.9,
      "title": "Coco",
      "popularity": 171.029226,
      "poster_path": "/eKi8dIrr8voobbaGzDpe8w0PVbC.jpg",
      "original_language": "en",
      "original_title": "Coco",
      "genre_ids": [10751, 16, 12],
      "backdrop_path": "/askg3SMvhqEl4OL52YuvdtY40Yb.jpg",
      "adult": false,
      "overview":
        "Despite his family’s baffling generations-old ban on music, Miguel dreams of becoming an accomplished musician like his idol, Ernesto de la Cruz. Desperate to prove his talent, Miguel finds himself in the stunning and colorful Land of the Dead following a mysterious chain of events. Along the way, he meets charming trickster Hector, and together, they set off on an extraordinary journey to unlock the real story behind Miguel's family history.",
      "release_date": "2017-10-27"
    },
    {
      "vote_count": 1416,
      "id": 341013,
      "video": false,
      "vote_average": 6,
      "title": "Atomic Blonde",
      "popularity": 158.522769,
      "poster_path": "/kV9R5h0Yct1kR8Hf8sJ1nX0Vz4x.jpg",
      "original_language": "en",
      "original_title": "Atomic Blonde",
      "genre_ids": [53, 9648, 28],
      "backdrop_path": "/lj3wkYkJGkfmDfXkKrVarSJpFD4.jpg",
      "adult": false,
      "overview":
        "An undercover MI6 agent is sent to Berlin during the Cold War to investigate the murder of a fellow agent and recover a missing list of double agents.",
      "release_date": "2017-07-26"
    },
    {
      "vote_count": 33,
      "id": 355547,
      "video": false,
      "vote_average": 4.1,
      "title": "The Star",
      "popularity": 142.869317,
      "poster_path": "/tEbDvivUfsCupngKIfMJJ725eAD.jpg",
      "original_language": "en",
      "original_title": "The Star",
      "genre_ids": [35, 16, 12],
      "backdrop_path": "/iJ5dkwIHQnq8dfmwSLh7dpETNhi.jpg",
      "adult": false,
      "overview":
        "A small but brave donkey and his animal friends become the unsung heroes of the greatest story ever told, the first Christmas.",
      "release_date": "2017-11-15"
    },
    {
      "vote_count": 22,
      "id": 371638,
      "video": false,
      "vote_average": 7.3,
      "title": "The Disaster Artist",
      "popularity": 134.107873,
      "poster_path": "/uCH6FOFsDW6pfvbbmIIswuvuNtM.jpg",
      "original_language": "en",
      "original_title": "The Disaster Artist",
      "genre_ids": [18, 35, 36],
      "backdrop_path": "/bAI7aPHQcvSZXvt7L11kMJdS0Gm.jpg",
      "adult": false,
      "overview":
        "An aspiring actor in Hollywood meets an enigmatic stranger by the name of Tommy Wiseau, the meeting leads the actor down a path nobody could have predicted; creating the worst movie ever made.",
      "release_date": "2017-12-01"
    },
    {
      "vote_count": 33,
      "id": 413362,
      "video": false,
      "vote_average": 5.1,
      "title": "Roman J. Israel, Esq.",
      "popularity": 127.780362,
      "poster_path": "/8e5IGlLrVjwrlDcRtzSQkXhJFWl.jpg",
      "original_language": "en",
      "original_title": "Roman J. Israel, Esq.",
      "genre_ids": [18],
      "backdrop_path": "/sY2ttr9jdPFlTVm5gxFkRW2ELUi.jpg",
      "adult": false,
      "overview":
        "Hard-nosed liberal lawyer Roman J. Israel has been fighting the good fight forever while others take the credit. When his partner, the firm’s frontman, has a heart attack, Israel suddenly takes on that role. He soon discovers some unsettling truths about the firm--truths that conflict with his values of helping the poor and dispossessed--and finds himself in an existential crisis that leads to extreme actions.",
      "release_date": "2017-11-10"
    },
    {
      "vote_count": 19,
      "id": 450322,
      "video": false,
      "vote_average": 4.9,
      "title": "The Man Who Invented Christmas",
      "popularity": 121.666665,
      "poster_path": "/qRkzRue5rTzB6PESXBJCKqROOXC.jpg",
      "original_language": "en",
      "original_title": "The Man Who Invented Christmas",
      "genre_ids": [18, 36],
      "backdrop_path": "/2lpHdk1ccelg5odsCmk77WqmIvT.jpg",
      "adult": false,
      "overview":
        "After a series his books have been flops, Charles Dickens decides to write and self-publish A Christmas Carol.",
      "release_date": "2017-11-22"
    },
    {
      "vote_count": 11,
      "id": 399404,
      "video": false,
      "vote_average": 3.3,
      "title": "Darkest Hour",
      "popularity": 111.700051,
      "poster_path": "/67fPL6ZaiOeM4hYqpxqV9Py8psJ.jpg",
      "original_language": "en",
      "original_title": "Darkest Hour",
      "genre_ids": [18, 36, 10752],
      "backdrop_path": "/mBd56RoS8HiiLT1u0ZZAWFWSU3g.jpg",
      "adult": false,
      "overview":
        "A thrilling and inspiring true story begins on the eve of World War II as, within days of becoming Prime Minister of Great Britain, Winston Churchill must face one of his most turbulent and defining trials: exploring a negotiated peace treaty with Nazi Germany, or standing firm to fight for the ideals, liberty and freedom of a nation. As the unstoppable Nazi forces roll across Western Europe and the threat of invasion is imminent, and with an unprepared public, a skeptical King, and his own party plotting against him, Churchill must withstand his darkest hour, rally a nation, and attempt to change the course of world history.",
      "release_date": "2017-11-22"
    },
    {
      "vote_count": 62,
      "id": 406997,
      "video": false,
      "vote_average": 7.7,
      "title": "Wonder",
      "popularity": 110.789571,
      "poster_path": "/ouYgAatYH4JzIThj6FI3UYf31RI.jpg",
      "original_language": "en",
      "original_title": "Wonder",
      "genre_ids": [18],
      "backdrop_path": "/f1Jv532UM9j6zrV2XVkHL7HyyIW.jpg",
      "adult": false,
      "overview":
        "Based on the New York Times bestseller, Wonder tells the inspiring and heartwarming story of August Pullman. Born with facial differences that, up until now, have prevented him from going to a mainstream school, Auggie becomes the most unlikely of heroes when he enters the local fifth grade. As his family, his new classmates, and the larger community all struggle to find their compassion and acceptance, Auggie's extraordinary journey will unite them all and prove you can't blend in when you were born to stand out.",
      "release_date": "2017-11-13"
    },
    {
      "vote_count": 9,
      "id": 429189,
      "video": false,
      "vote_average": 1.7,
      "title": "Wonder Wheel",
      "popularity": 107.338356,
      "poster_path": "/fPXn8SW4pa4kJErAIAJLmb3Znns.jpg",
      "original_language": "en",
      "original_title": "Wonder Wheel",
      "genre_ids": [18],
      "backdrop_path": "/jGYeZzcAG0df2nWRLJW2CiweyyG.jpg",
      "adult": false,
      "overview":
        "The story of four characters whose lives intertwine amid the hustle and bustle of the Coney Island amusement park in the 1950s: Ginny, an emotionally volatile former actress now working as a waitress in a clam house; Humpty, Ginny’s rough-hewn carousel operator husband; Mickey, a handsome young lifeguard who dreams of becoming a playwright; and Carolina, Humpty’s long-estranged daughter, who is now hiding out from gangsters at her father’s apartment.",
      "release_date": "2017-12-01"
    },
    {
      "vote_count": 74,
      "id": 395458,
      "video": false,
      "vote_average": 4.4,
      "title": "Suburbicon",
      "popularity": 106.59291,
      "poster_path": "/a3IHgSwO5jWPLcGjKqbQ7pxVGkq.jpg",
      "original_language": "en",
      "original_title": "Suburbicon",
      "genre_ids": [35, 80, 18, 28, 9648],
      "backdrop_path": "/egHeYqgrutiRAzGGWTKp3zqUw0j.jpg",
      "adult": false,
      "overview":
        "A crime mystery set in the quiet family town of Suburbicon during the 1950s, where the best and worst of humanity is hilariously reflected through the deeds of seemingly ordinary people. When a home invasion turns deadly, a picture-perfect family turns to blackmail, revenge, and murder.",
      "release_date": "2017-10-26"
    },
    {
      "vote_count": 3,
      "id": 324562,
      "video": false,
      "vote_average": 7,
      "title": "The Tribes of Palos Verdes",
      "popularity": 100.088783,
      "poster_path": "/8w4JecmVtqcSMk4mdiHURzISsYz.jpg",
      "original_language": "en",
      "original_title": "The Tribes of Palos Verdes",
      "genre_ids": [18],
      "backdrop_path": "/oaP6t1q2eqISHpx5tvwK7GFXtQ9.jpg",
      "adult": false,
      "overview":
        "When the situation at her idyllic Palos Verdes home turns volatile, young Medina attempts to surf her way to happiness.",
      "release_date": "2017-12-01"
    },
    {
      "vote_count": 6,
      "id": 376658,
      "video": false,
      "vote_average": 5.5,
      "title": "Love Beats Rhymes",
      "popularity": 94.417762,
      "poster_path": "/xOY5AFJhACTgJJeTQTvlyOYw2BS.jpg",
      "original_language": "en",
      "original_title": "Love Beats Rhymes",
      "genre_ids": [10402, 18],
      "backdrop_path": "/32QDO2p9ptqDsSBMcKiI6afeJ7y.jpg",
      "adult": false,
      "overview":
        "An aspiring hip-hop artist discovers the world of slam poetry.",
      "release_date": "2017-12-01"
    },
    {
      "vote_count": 329,
      "id": 293768,
      "video": false,
      "vote_average": 6,
      "title": "Kidnap",
      "popularity": 85.917317,
      "poster_path": "/fwdOX3PEZlOLXr9SMpgRnSmTVFp.jpg",
      "original_language": "en",
      "original_title": "Kidnap",
      "genre_ids": [18, 53],
      "backdrop_path": "/siRoJI12l4SbWye3wpIotM8OslV.jpg",
      "adult": false,
      "overview":
        "Single mother Karla McCoy lives a perfect life with her young son Frankie. One day, upon entering a local park, Karla sees her son suddenly being abducted out of the blue by a kidnapper. To save Frankie from being taken, Karla goes out on a mission to demand people in the city to help rescue her son.",
      "release_date": "2017-08-04"
    }
  ],
  "page": 1,
  "total_results": 1026,
  "dates": { "maximum": "2017-12-12", "minimum": "2017-10-25" },
  "total_pages": 52
}
